^C:\USERS\MAGSHIMIM\DOWNLOADS\DEBUGWORKSHOP.RAR-20231204T162055Z-001\DEBUGWORKSHOP\DEBUGWORKSHOP\MYPOINTEXACTLY\MAIN.CPP|C:\USERS\MAGSHIMIM\DOWNLOADS\DEBUGWORKSHOP.RAR-20231204T162055Z-001\DEBUGWORKSHOP\DEBUGWORKSHOP\MYPOINTEXACTLY\POINT.CPP
C:\USERS\MAGSHIMIM\DOWNLOADS\DEBUGWORKSHOP.RAR-20231204T162055Z-001\DEBUGWORKSHOP\DEBUGWORKSHOP\MYPOINTEXACTLY\DEBUG\VC143.PDB
C:\USERS\MAGSHIMIM\DOWNLOADS\DEBUGWORKSHOP.RAR-20231204T162055Z-001\DEBUGWORKSHOP\DEBUGWORKSHOP\MYPOINTEXACTLY\DEBUG\VC143.IDB
C:\USERS\MAGSHIMIM\DOWNLOADS\DEBUGWORKSHOP.RAR-20231204T162055Z-001\DEBUGWORKSHOP\DEBUGWORKSHOP\MYPOINTEXACTLY\DEBUG\MAIN.OBJ
C:\USERS\MAGSHIMIM\DOWNLOADS\DEBUGWORKSHOP.RAR-20231204T162055Z-001\DEBUGWORKSHOP\DEBUGWORKSHOP\MYPOINTEXACTLY\DEBUG\POINT.OBJ
^C:\USERS\MAGSHIMIM\DOWNLOADS\DEBUGWORKSHOP.RAR-20231204T162055Z-001\DEBUGWORKSHOP\DEBUGWORKSHOP\MYPOINTEXACTLY\MAIN.CPP
C:\USERS\MAGSHIMIM\DOWNLOADS\DEBUGWORKSHOP.RAR-20231204T162055Z-001\DEBUGWORKSHOP\DEBUGWORKSHOP\MYPOINTEXACTLY\DEBUG\VC143.PDB
C:\USERS\MAGSHIMIM\DOWNLOADS\DEBUGWORKSHOP.RAR-20231204T162055Z-001\DEBUGWORKSHOP\DEBUGWORKSHOP\MYPOINTEXACTLY\DEBUG\VC143.IDB
C:\USERS\MAGSHIMIM\DOWNLOADS\DEBUGWORKSHOP.RAR-20231204T162055Z-001\DEBUGWORKSHOP\DEBUGWORKSHOP\MYPOINTEXACTLY\DEBUG\MAIN.OBJ
^C:\USERS\MAGSHIMIM\DOWNLOADS\DEBUGWORKSHOP.RAR-20231204T162055Z-001\DEBUGWORKSHOP\DEBUGWORKSHOP\MYPOINTEXACTLY\POINT.CPP
C:\USERS\MAGSHIMIM\DOWNLOADS\DEBUGWORKSHOP.RAR-20231204T162055Z-001\DEBUGWORKSHOP\DEBUGWORKSHOP\MYPOINTEXACTLY\DEBUG\VC143.PDB
C:\USERS\MAGSHIMIM\DOWNLOADS\DEBUGWORKSHOP.RAR-20231204T162055Z-001\DEBUGWORKSHOP\DEBUGWORKSHOP\MYPOINTEXACTLY\DEBUG\VC143.IDB
C:\USERS\MAGSHIMIM\DOWNLOADS\DEBUGWORKSHOP.RAR-20231204T162055Z-001\DEBUGWORKSHOP\DEBUGWORKSHOP\MYPOINTEXACTLY\DEBUG\POINT.OBJ
