^C:\USERS\MAGSHIMIM\DOCUMENTS\MAGSHIMIM_2\WEEK6_SADNA\DEBUGWORKSHOP.RAR-20231204T162055Z-001\DEBUGWORKSHOP\DEBUGWORKSHOP\PASSWORD\DEBUG\PASSWORD.OBJ
C:\USERS\MAGSHIMIM\DOCUMENTS\MAGSHIMIM_2\WEEK6_SADNA\DEBUGWORKSHOP.RAR-20231204T162055Z-001\DEBUGWORKSHOP\DEBUGWORKSHOP\PASSWORD\DEBUG\PASSWORD.ILK
C:\USERS\MAGSHIMIM\DOCUMENTS\MAGSHIMIM_2\WEEK6_SADNA\DEBUGWORKSHOP.RAR-20231204T162055Z-001\DEBUGWORKSHOP\DEBUGWORKSHOP\DEBUG\PASSWORD.EXE
C:\USERS\MAGSHIMIM\DOCUMENTS\MAGSHIMIM_2\WEEK6_SADNA\DEBUGWORKSHOP.RAR-20231204T162055Z-001\DEBUGWORKSHOP\DEBUGWORKSHOP\DEBUG\PASSWORD.PDB
